id,title,price,plu,myBkOnly,myBkOnetime,abTesting
10162,Long Chicken® + KING Jr. Meal,7,49 €,31933,False,False,None
10175,2 WHOPPER® Jr. ,€ 4.99,31084,False,False,None
10175,2 WHOPPER® Jr. ,€ 4.99,Z3,False,False,None
10541,Veggie KING,€ 4.49,31136,False,False,None
10640,2 Chili Cheese Burger,2,99 €,60357,False,True,None
10641,Shake Oreo Regular,€ 1.99,Z23,False,True,None
10641,Shake Oreo Regular,1,99 €,51539,False,True,None
10642,Whopper Jr.,1,49 €,11324,False,True,None
10643,9 KING Nuggets,€ 1.99,23208,False,True,None
10967,Big KING,€ 1.99,Z30,False,False,None
10968,Crispy Chicken,€ 1.99,Z31,False,False,None
11014,Crispy Chicken Burger + Chicken Nugget Burger,€ 5.99,32403,False,False,None
11015,Big KING + Cheeseburger,€ 5.99,32404,False,False,None
11016,Long Chicken® + KING Sundae Chocolate,€ 4.99,32405,False,False,None
11017,KING Shake small,€ 1.00,51527,False,True,None
11017,KING Shake small,€ 1.00,Y28,False,True,None
11018,Cheeseburger,€ 1.00,11322,False,True,None
11019,Double Chili Cheese Burger,€ 1.79,16064,False,True,None
11019,Double Chili Cheese Burger,€ 1.79,Y31,False,True,None
11020,9er KING Nuggets,None,31154,False,True,None
11020,9er KING Nuggets,None,Y32,False,True,None
11021,Crispy Chicken + Long Chicken®,€ 3.99,60944,False,True,None
11021,Crispy Chicken + Long Chicken®,€ 3.99,Y30,False,True,None
11079,Big KING + Cheeseburger,€ 4.99,32406,False,False,None
11079,Big KING + Cheeseburger,€ 4.99,Y11,False,False,None
11142,KING Box Cheeseburger,4,99 €,31087,False,True,None
11229,2 for 6€,6 €,Please order at check-out or SOT,False,False,None
11240,Long Chicken® + Cheeseburger,€ 5,99,Y13,False,False,None
11244,WHOPPER® Jr.,€ 2,99,3123,False,False,None
11245,WHOPPER® Jr.,€ 2,99,32298,False,False,None
11246,Big KING,€ 3,99,31147,False,False,None
11247,Long Chicken®,€ 3,99,31148,False,False,None
11248,Big KING + WHOPPER® Jr.,€ 5,99,32409,False,False,None
11249,Long Chicken® + WHOPPER® Jr.,€ 5,99,32407,False,False,None
11268,Big KING,4,49 €,Y29,False,True,None
11269,Double Steakhouse + Veggie Cheese KING,€ 8,99,Y18,False,False,None
11285,2 WHOPPER®,€ 8,49,Z10,False,False,None
11499,Big KING® + Double Cheeseburger,6,99 €,Z28,False,False,None
11505,Crispy Chicken + WHOPPER® Jr.,€ 5.99,Z12,False,False,None
11506,20 KING Nuggets + 3 Dips,€ 6.99,Z13,False,False,None
11507,2 Chili Cheese Burger + 4 KING Nuggets,€ 4.99,Z14,False,False,None
11544,KING Shake small,€ 1.00,Z18,False,True,None
11545,Big KING,4,49 €,Z19,False,True,None
11546,Crispy Chicken + Long Chicken®,€ 3.99,Z20,False,True,None
11547,Cheeseburger,€ 1.00,Z21,False,True,None
11548,Chicken Nugget Burger,€ 1.99,Z22,False,True,None
11550,Long Chicken®,€ 4.49,Z24,False,True,None
11552,6 KING Wings,€ 3.99,Z25,False,True,None
11553,WHOPPER® ,€ 3.49,Z26,False,True,None
11554,Bacon KING,€ 4.49,Z27,False,True,None
11586,9 KING Nuggets + 2 Dips,€ 3.49,Z16,False,False,None
11587,Honey BBQ KING,€ 1.99,Z32,False,False,None
1159,WHOPPER® + Long Chicken®,€ 7.99,Z9,False,False,None
1159,WHOPPER® + Long Chicken®,None,32066,False,False,None
1160,2 Chili Cheese Burger,€ 2.49,60856,False,False,None
1161,2 Chicken Nugget Burger,€1.99,60199,False,False,None
1161,2 Chicken Nugget Burger,€1.99,Z1,False,False,None
1162,2 Big KING XXL,€ 9.99,31070,False,False,None
1162,2 Big KING XXL,€ 9.99,Z7,False,False,None
11683,Whopper® Jr.,€ 1,Z36,False,False,None
11701,Crispy Chicken + Big KING,€ 6.99,Z37,False,False,None
11702,20 KING Nuggets,€ 4,Z38,False,False,None
11707,Long Chicken®,€ 1,Z40,False,False,None
2859,6 Chili Cheese Nuggets,€ 1.99,23036,False,False,None
2859,6 Chili Cheese Nuggets,€ 1.99,Z2,False,False,None
3551,Chili Cheese Fries,€ 1.49,Z4,False,False,None
3837,Big KING + Long Chicken®,€ 7.49,32162,False,False,None
3966,Double Steakhouse + Long Chicken®,€ 8.99,32180,False,False,None
3966,Double Steakhouse + Long Chicken®,€ 8.99,Z6,False,False,None
6404,Big KING,1,99 €,Z29,False,False,None
6421,2 KING Fusion,€ 3.00,42243,False,False,None
7513,Bacon KING + Crispy Chicken,€ 8.99,32197,False,False,None
7513,Bacon KING + Crispy Chicken,€ 8.99,Z5,False,False,None
7514,None,None,None,False,False,None
8072,Crispy Chicken + KING Jr. Meal,€ 7.49,31931,False,False,None
8072,Crispy Chicken + KING Jr. Meal,€ 7.50,Z39,False,False,None
8201,Xtra Long Chili Cheese + Crispy Chicken,€ 7.99,32107,False,False,None
8201,Xtra Long Chili Cheese + Crispy Chicken,€ 7.99,Z8,False,False,None
8202,Crispy Chicken,€ 3.99,Z11,False,False,None
8203,Xtra Long Chili Cheese Burger + Chili Cheese Burger,7,49 €,32109,False,False,None
